{
  "project_info": {
    "project_number": "577821436664",
    "firebase_url": "https://oceanuser-edabe.firebaseio.com",
    "project_id": "oceanuser-edabe",
    "storage_bucket": "oceanuser-edabe.appspot.com"
  },
  "client": [
    {
      "client_info": {
        "mobilesdk_app_id": "1:577821436664:android:f3bd4410841b9be4c3690d",
        "android_client_info": {
          "package_name": "com.oceanapp"
        }
      },
      "oauth_client": [
        {
          "client_id": "577821436664-5f032n8h04sopr5p1nbh4ibugtirk76n.apps.googleusercontent.com",
          "client_type": 3
        }
      ],
      "api_key": [
        {
          "current_key": "AIzaSyDqvo7QDKxUMXN1c3xNCIXEN1c_b5BwS7M"
        }
      ],
      "services": {
        "appinvite_service": {
          "other_platform_oauth_client": [
            {
              "client_id": "577821436664-5f032n8h04sopr5p1nbh4ibugtirk76n.apps.googleusercontent.com",
              "client_type": 3
            }
          ]
        }
      }
    }
  ],
  "configuration_version": "1"
}