{
  "project_info": {
    "project_number": "137927602251",
    "firebase_url": "https://ocean-d127b.firebaseio.com",
    "project_id": "ocean-d127b",
    "storage_bucket": "ocean-d127b.appspot.com"
  },
  "client": [
    {
      "client_info": {
        "mobilesdk_app_id": "1:137927602251:android:ef3de945282b0f957d5dce",
        "android_client_info": {
          "package_name": "com.oceanadmin"
        }
      },
      "oauth_client": [
        {
          "client_id": "137927602251-mdajs93jnuaqsm41ajac65p3oad34nog.apps.googleusercontent.com",
          "client_type": 3
        }
      ],
      "api_key": [
        {
          "current_key": "AIzaSyAoLAofjD6Pf4D_xM5PpKNAdegA7Brr2ig"
        }
      ],
      "services": {
        "appinvite_service": {
          "other_platform_oauth_client": [
            {
              "client_id": "137927602251-mdajs93jnuaqsm41ajac65p3oad34nog.apps.googleusercontent.com",
              "client_type": 3
            }
          ]
        }
      }
    }
  ],
  "configuration_version": "1"
}